…
**Returns:** A tibble with one row per demographic-group-question combination

```r
attr_analysis <- analyze_by_attributes(
  survey,
  attribute_file = "tests/testthat/fixtures/employee_attributes.csv",
  scale_points = 5,
  attribute_cols = c("Department", "Gender"),
  min_group_size = 10
)
```

**Output Structure:**
```r
# A tibble: 180 × 13
   Department  Gender group_size question           mean    sd n_responses n_skips
   <chr>       <chr>       <int> <chr>             <dbl> <dbl>       <int>   <int>
 1 Engineering Female        937 My work is mean…   3.52  1.10         894      43
 2 Engineering Female        937 I feel valued      3.59  1.09         893      44
 3 Engineering Female        937 I have opportun…   3.59  1.07         906      31
 4 Engineering Male          974 My work is mean…   3.59  1.07         919      55
 5 Engineering Male          974 I feel valued      3.57  1.11         920      54
# … with 175 more rows, and 5 more variables: n_total <int>,
#   response_rate <dbl>, pct_favorable <dbl>, pct_neutral <dbl>,
#   pct_unfavorable <dbl>
```
…
```r
attrition <- analyze_attrition(
  survey,
  attrition_file = "tests/testthat/fixtures/large_attrition.csv",
  emp_id_col = "EMP ID",
  term_date_col = "Termination Date",
  scale_points = 5,
  time_periods = c(30, 90, 180)
)
```

**Output Structure:**
```r
# A tibble: 36 × 7
   question                  days favorable_n favorable_attrition unfavorable_n
   <chr>                    <dbl>       <int>               <dbl>         <int>
 1 My work is meaningful       30        2251              0.0262          1498
 2 My work is meaningful       90        2251              0.0697          1498
 3 My work is meaningful      180        2251              0.1113          1498
 4 I feel valued               30        2274              0.0281          1506
 5 I feel valued               90        2274              0.0665          1506
# … with 31 more rows, and 2 more variables: unfavorable_attrition <dbl>,
#   attrition_ratio <dbl>
```
…
